…
### Get posterior without worrying about `greta` code

``` r
library(greta)
drawsDF = graph %>% dag_greta()
drawsDF  ### see top of data frame
#> # A tibble: 4,000 x 4
#>    theta_JpWrnglr theta_KiaForte theta_SbrOtbck theta_ToytCrll
#>             <dbl>          <dbl>          <dbl>          <dbl>
#>  1          0.832          0.156          0.605          0.206
#>  2          0.871          0.240          0.612          0.207
#>  3          0.820          0.285          0.670          0.212
#>  4          0.903          0.228          0.654          0.196
#>  5          0.836          0.252          0.598          0.205
#>  6          0.826          0.198          0.617          0.214
#>  7          0.828          0.168          0.608          0.213
#>  8          0.859          0.239          0.567          0.181
#>  9          0.840          0.264          0.597          0.217
#> 10          0.840          0.264          0.597          0.217
#> # ... with 3,990 more rows
```
…
