…
### Adding data, likelihood, and prior

A dataset to accompany this story is built-in to the `causact` package:


```r
# ------------------------------------
# Revisiting the Get Credit Card Model
# ------------------------------------

# data included in the causact package
# 1,000 customers and the car they drive
carModelDF   #show data
#> # A tibble: 1,000 x 3
#> # Rowwise: 
#>    customerID carModel       getCard
#>         <int> <chr>            <int>
#>  1          1 Toyota Corolla       0
#>  2          2 Subaru Outback       1
#>  3          3 Toyota Corolla       0
#>  4          4 Subaru Outback       0
#>  5          5 Kia Forte            1
#>  6          6 Toyota Corolla       0
#>  7          7 Toyota Corolla       0
#>  8          8 Subaru Outback       1
#>  9          9 Toyota Corolla       0
#> 10         10 Toyota Corolla       0
#> # ... with 990 more rows
```
…
