…
All visualizations, including \autoref{fig:chimps} and \autoref{fig:chimpShort}, are created via `causact`'s calls to the `DiagrammeR` package [@iannone20].  The `dag_diagrammer()` function can convert a `causact_graph` to a `dgr_graph` (the main object when using `DiagrammeR`) for further customizing of a visualization using the `DiagrammeR` package. 

Sampling from the posterior of the chimpanzee model (\autoref{fig:chimps}) does not require a user to write PPL code, but rather a user will simply pass the generative DAG object to `dag_greta()` and then inspect the data frame of posterior draws:

```r
library(greta) ## greta uses TensorFlow to get sample
drawsDF = graph %>% dag_greta()
drawsDF
```

```
## # A tibble: 4,000 x 10
##     alpha alpha_i_1 alpha_i_2 alpha_i_3 alpha_i_4 alpha_i_5 alpha_i_6
##     <dbl>     <dbl>     <dbl>     <dbl>     <dbl>     <dbl>     <dbl>
##  1  0.227    -1.01       3.58     -1.40    -1.50     -0.963    0.133 
##  2  0.227    -1.01       3.58     -1.40    -1.50     -0.963    0.133 
##  3 -0.204    -0.489      3.84     -1.43    -1.14     -0.253    0.863 
##  4  0.221    -0.503      3.83     -1.30    -0.835    -0.212    0.0866
##  5  0.189    -1.54       3.99     -1.27    -1.85     -1.60     0.0299
##  6  1.14     -1.58       2.20     -3.06    -2.58     -2.00    -1.41  
##  7 -0.195    -0.405      2.75     -1.53    -0.849    -0.750   -0.481 
##  8  0.832    -2.04       2.96     -3.12    -2.65     -1.67    -1.71  
##  9  1.91     -2.78       1.78     -3.98    -3.15     -2.97    -2.46  
## 10  1.01     -2.52       6.37     -2.74    -3.09     -2.37    -0.957 
## # ... with 3,990 more rows, and 3 more variables: alpha_i_7 <dbl>,
##   beta <dbl>, sigma_i <dbl>
```
…
